[
  {
    "id": 1,
    "product": "Game Of Throne",
    "expire": "Imam",
    "price": "1.000.000.000"
  },
  {
    "id": 2,
    "product": "Game Of Throne",
    "expire": "Imam",
    "price": "1.000.000.000"
  },
  {
    "id": 3,
    "product": "Game Of Throne",
    "expire": "Imam",
    "price": "1.000.000.000"
  },
  {
    "id": 4,
    "product": "Game Of Throne",
    "expire": "Imam",
    "price": "1.000.000.000"
  },
  {
    "id": 5,
    "product": "Game Of Throne",
    "expire": "Imam",
    "price": "1.000.000.000"
  },
  {
    "id": 6,
    "product": "Game Of Throne",
    "expire": "Imam",
    "price": "1.000.000.000"
  }
]